docker run -v "$(pwd)/e9.txt:/usr/src/app/text.log" devopsdockeruh/simple-web-service
//$(pwd) = current working directory on my pc
// e9.txt = targeting a file on my pc
// IF FILE e9.txt DOES NOT EXIST DOCKER CREATES A FOLDER e9.txt
// :/usr = targeting the directory on container 

2024-04-12 11:52:14 +0000 UTC
2024-04-12 11:52:16 +0000 UTC
2024-04-12 11:52:41 +0000 UTC
2024-04-12 11:52:43 +0000 UTC
